{
     "exhibits": [
          {
               "id": 0,
               "identity": "000000000000000000000000004d75736963616c",
               "tagSlotsSize": 5,
               "thumbnail": "thumb_0",
               "floor": 2,
               "name": "Musical",
               "artist": "Takis"
          },
          {
               "id": 1,
               "identity": "00000000000000004c6f6e656c79206368616972",
               "tagSlotsSize": 5,
               "thumbnail": "thumb_1",
               "floor": 2,
               "name": "Lonely Chair",
               "artist": "Marina Karella"
          },
          {
               "id": 2,
               "identity": "000000000000000000004164616d202620457665",
               "tagSlotsSize": 5,
               "thumbnail": "thumb_2",
               "floor": 2,
               "name": "Adam and Eve",
               "artist": "Niki De Saint-Phalle"
          },
          {
               "id": 3,
               "identity": "00416c6578616e64657220546865204772656174",
               "tagSlotsSize": 4,
               "thumbnail": "thumb_3",
               "floor": 2,
               "name": "Alexander the Great",
               "artist": "Andy Warhol"
          },
          {
               "id": 4,
               "identity": "53746f727920776974682074686520636869636b656e",
               "tagSlotsSize": 5,
               "thumbnail": "thumb_4",
               "floor": 2,
               "name": "The story with the chicken",
               "artist": "Martial Raysse"
          },
          {
               "id": 5,
               "identity": "000000000000000000000000556e7469746c6564",
               "tagSlotsSize": 5,
               "thumbnail": "thumb_5",
               "floor": 1,
               "name": "Untitled",
               "artist": "Dimitris Alithinos (Panagiotopoulos)"
          },
          {
               "id": 6,
               "identity": "0000000000426c7565205265642059656c6c6f77",
               "tagSlotsSize": 6,
               "thumbnail": "thumb_6",
               "floor": 1,
               "name": "Blue Red Yellow",
               "artist": "Costas Tsoklis"
          },
          {
               "id": 7,
               "identity": "000000000000000000005374696c6c206c696665",
               "tagSlotsSize": 5,
               "thumbnail": "thumb_7",
               "floor": 1,
               "name": "Still Life",
               "artist": "Christos Tzivelos"
          },
          {
               "id": 8,
               "identity": "0000000000466976652070617374207468726565",
               "tagSlotsSize": 6,
               "thumbnail": "thumb_8",
               "floor": 1,
               "name": "Five past Three",
               "artist": "Apostolos Georgiou"
          },
          {
               "id": 9,
               "identity": "4e696b652e205468652049646561206f662074686520636f70792061732069646561",
               "tagSlotsSize": 5,
               "thumbnail": "thumb_9",
               "floor": 1,
               "name": "Nike. The Idea of the Copy as Idea",
               "artist": "Yorgos Lazongas"
          },
          {
               "id": 10,
               "identity": "5374616d7020617263686976652e2050656f706c65",
               "tagSlotsSize": 5,
               "thumbnail": "thumb_10",
               "floor": 1,
               "name": "Stamp archive. People",
               "artist": "George Hadjimichalis"
          },
          {
               "id": 11,
               "identity": "5363756c707475726520696e207468726565207061727473",
               "tagSlotsSize": 5,
               "thumbnail": "thumb_11",
               "floor": 1,
               "name": "Sculpture in three parts",
               "artist": "Jummie Durham"
          },
          {
               "id": 12,
               "identity": "0000000000000000000000000000466f72657374",
               "tagSlotsSize": 4,
               "thumbnail": "thumb_12",
               "floor": 1,
               "name": "Forest",
               "artist": "Pavlos (Dionysopoulos)"
          },
          {
               "id": 13,
               "identity": "4361726f7573656c20666f72206368696c6472656e20696e20566965746e616d",
               "tagSlotsSize": 5,
               "thumbnail": "thumb_13",
               "floor": 2,
               "name": "Carousel for children in Vietnam",
               "artist": "Alexis Akrithakis"
          },
          {
               "id": 14,
               "identity": "0000000000000044616e6365204d616361627265",
               "tagSlotsSize": 5,
               "thumbnail": "thumb_14",
               "floor": 2,
               "name": "Dance Macabre",
               "artist": "Jean Tinguely"
          }
     ],
     "taglines": [
          {
               "id": 0,
               "category": 0,
               "name": "Musical sculpture",
               "hint": "",
               "points": 3,
               "validExhibits": [
                    0
               ]
          },
          {
               "id": 1,
               "category": 0,
               "name": "Strings-Needles",
               "hint": "",
               "points": 2,
               "validExhibits": [
                    0
               ]
          },
          {
               "id": 2,
               "category": 0,
               "name": "Artist-Inventor",
               "hint": "The artist is the inventor of a new artistic means of expression based on the functional exploitation of the laws of nature.",
               "points": 5,
               "validExhibits": [
                    0
               ]
          },
          {
               "id": 3,
               "category": 0,
               "name": "Artwork activated by magnetism",
               "hint": "The artist is the author of the Magnetic Manifesto of 1960. His electromagnetic games invited audience to participate and initiated them to magnetic attraction.",
               "points": 3,
               "validExhibits": [
                    0
               ]
          },
          {
               "id": 4,
               "category": 0,
               "name": "Repeated Sound",
               "hint": "The repetition concept of Takis music constitutes an original part of his work",
               "points": 2,
               "validExhibits": [
                    0
               ]
          },
          {
               "id": 5,
               "category": 0,
               "name": "Left coat",
               "hint": "",
               "points": 3,
               "validExhibits": [
                    1
               ]
          },
          {
               "id": 6,
               "category": 0,
               "name": "Folds",
               "hint": "",
               "points": 2,
               "validExhibits": [
                    1
               ]
          },
          {
               "id": 7,
               "category": 0,
               "name": "Presence-Absence",
               "hint": "",
               "points": 5,
               "validExhibits": [
                    1
               ]
          },
          {
               "id": 8,
               "category": 0,
               "name": "Porcelain",
               "hint": "",
               "points": 1,
               "validExhibits": [
                    1
               ]
          },
          {
               "id": 9,
               "category": 0,
               "name": "Paradox chair",
               "hint": "",
               "points": 3,
               "validExhibits": [
                    1
               ]
          },
          {
               "id": 10,
               "category": 0,
               "name": "A... famous couple",
               "hint": "",
               "points": 3,
               "validExhibits": [
                    2
               ]
          },
          {
               "id": 11,
               "category": 0,
               "name": "Explosive colors and floral patterns",
               "hint": "",
               "points": 1,
               "validExhibits": [
                    2
               ]
          },
          {
               "id": 12,
               "category": 0,
               "name": "Larger-than-life-size bodies",
               "hint": "",
               "points": 2,
               "validExhibits": [
                    2
               ]
          },
          {
               "id": 13,
               "category": 0,
               "name": "Overemphasized genitalia",
               "hint": "",
               "points": 1,
               "validExhibits": [
                    2
               ]
          },
          {
               "id": 14,
               "category": 0,
               "name": "Peppier mache & polyester",
               "hint": "",
               "points": 4,
               "validExhibits": [
                    2
               ]
          },
          {
               "id": 15,
               "category": 0,
               "name": "The artist is the major representative of the New York Pop-Art Movement",
               "hint": "",
               "points": 4,
               "validExhibits": [
                    3
               ]
          },
          {
               "id": 16,
               "category": 0,
               "name": "Historical figure-Idol",
               "hint": "During the 70's he was most concerned with the portrayal of stars of music, stage screen, and politics e.g. Che Quevara, Merlyn Monroe, Mao, Elizabeth Taylor",
               "points": 3,
               "validExhibits": [
                    3
               ]
          },
          {
               "id": 17,
               "category": 0,
               "name": "Silk screen",
               "hint": "Printing technique that uses a woven mesh to support an ink-blocking stencil to receive a desired image.",
               "points": 4,
               "validExhibits": [
                    3
               ]
          },
          {
               "id": 18,
               "category": 0,
               "name": "Mass reproduction of image",
               "hint": "Andy Warhol comments the phenomenon of mass consumerism during the 60's in America.",
               "points": 4,
               "validExhibits": [
                    3
               ]
          },
          {
               "id": 19,
               "category": 0,
               "name": "Intensive fluorescent colors",
               "hint": "",
               "points": 5,
               "validExhibits": [
                    4
               ]
          },
          {
               "id": 20,
               "category": 0,
               "name": "Fragmented portrait of Liz Taylor",
               "hint": "",
               "points": 5,
               "validExhibits": [
                    4
               ]
          },
          {
               "id": 21,
               "category": 0,
               "name": "Chicken escaping the frame",
               "hint": "",
               "points": 3,
               "validExhibits": [
                    4
               ]
          },
          {
               "id": 22,
               "category": 0,
               "name": "A misplaced frame",
               "hint": "",
               "points": 4,
               "validExhibits": [
                    4
               ]
          },
          {
               "id": 23,
               "category": 0,
               "name": "An ongoing story",
               "hint": "",
               "points": 5,
               "validExhibits": [
                    4
               ]
          },
          {
               "id": 24,
               "category": 0,
               "name": "Dustbins",
               "hint": "",
               "points": 1,
               "validExhibits": [
                    5
               ]
          },
          {
               "id": 25,
               "category": 0,
               "name": "Hidden People",
               "hint": "",
               "points": 3,
               "validExhibits": [
                    5
               ]
          },
          {
               "id": 26,
               "category": 0,
               "name": "Censorship-Suppression",
               "hint": "The artwork refers to the period of dictatorship in Greece from 1967 to 1974",
               "points": 5,
               "validExhibits": [
                    5
               ]
          },
          {
               "id": 27,
               "category": 0,
               "name": "Radio Broadcasting",
               "hint": "An indirect comment on the function of the mass media in fascist regimes",
               "points": 4,
               "validExhibits": [
                    5
               ]
          },
          {
               "id": 28,
               "category": 0,
               "name": "Ready made",
               "hint": "\"Ready mades\" were first used in art by Marcel Duchamp at the beginning of 20th c.",
               "points": 4,
               "validExhibits": [
                    5
               ]
          },
          {
               "id": 29,
               "category": 0,
               "name": "Triptych",
               "hint": "",
               "points": 1,
               "validExhibits": [
                    6
               ]
          },
          {
               "id": 30,
               "category": 0,
               "name": "Misleading title",
               "hint": "",
               "points": 4,
               "validExhibits": [
                    6
               ]
          },
          {
               "id": 31,
               "category": 0,
               "name": "Papers lying around",
               "hint": "",
               "points": 1,
               "validExhibits": [
                    6
               ]
          },
          {
               "id": 32,
               "category": 0,
               "name": "The artwork expands in real space",
               "hint": "",
               "points": 2,
               "validExhibits": [
                    6
               ]
          },
          {
               "id": 33,
               "category": 0,
               "name": "Illusionary stairs",
               "hint": "",
               "points": 2,
               "validExhibits": [
                    6
               ]
          },
          {
               "id": 34,
               "category": 0,
               "name": "Artwork in grayscale",
               "hint": "",
               "points": 3,
               "validExhibits": [
                    6
               ]
          },
          {
               "id": 35,
               "category": 0,
               "name": "Fruits",
               "hint": "",
               "points": 1,
               "validExhibits": [
                    7
               ]
          },
          {
               "id": 36,
               "category": 0,
               "name": "Transparency",
               "hint": "",
               "points": 2,
               "validExhibits": [
                    7
               ]
          },
          {
               "id": 37,
               "category": 0,
               "name": "Painting on glass",
               "hint": "",
               "points": 1,
               "validExhibits": [
                    7
               ]
          },
          {
               "id": 38,
               "category": 0,
               "name": "Electric bulbs part of the composition",
               "hint": "",
               "points": 2,
               "validExhibits": [
                    7
               ]
          },
          {
               "id": 39,
               "category": 0,
               "name": "Still life floating in space",
               "hint": "",
               "points": 4,
               "validExhibits": [
                    7
               ]
          },
          {
               "id": 40,
               "category": 0,
               "name": "Composition reminding of a clock",
               "hint": "",
               "points": 4,
               "validExhibits": [
                    8
               ]
          },
          {
               "id": 41,
               "category": 0,
               "name": "Hands indicating time",
               "hint": "",
               "points": 4,
               "validExhibits": [
                    8
               ]
          },
          {
               "id": 42,
               "category": 0,
               "name": "Large scale painting",
               "hint": "",
               "points": 2,
               "validExhibits": [
                    8
               ]
          },
          {
               "id": 43,
               "category": 0,
               "name": "Roughly painted figures",
               "hint": "",
               "points": 2,
               "validExhibits": [
                    8
               ]
          },
          {
               "id": 44,
               "category": 0,
               "name": "Geometric structure of pictorial space",
               "hint": "",
               "points": 5,
               "validExhibits": [
                    8
               ]
          },
          {
               "id": 45,
               "category": 0,
               "name": "A moment frozen in \"time\"",
               "hint": "",
               "points": 4,
               "validExhibits": [
                    8
               ]
          },
          {
               "id": 46,
               "category": 0,
               "name": "Representation of Nike",
               "hint": "Derived from the ancient Greek statues of victory",
               "points": 4,
               "validExhibits": [
                    9
               ]
          },
          {
               "id": 47,
               "category": 0,
               "name": "Wings",
               "hint": "",
               "points": 2,
               "validExhibits": [
                    9
               ]
          },
          {
               "id": 48,
               "category": 0,
               "name": "Elevation-Fall",
               "hint": "",
               "points": 4,
               "validExhibits": [
                    9
               ]
          },
          {
               "id": 49,
               "category": 0,
               "name": "Hovering stone",
               "hint": "",
               "points": 2,
               "validExhibits": [
                    9
               ]
          },
          {
               "id": 50,
               "category": 0,
               "name": "Use of different artistic means",
               "hint": "Combination of painting sculpture projection and installation",
               "points": 5,
               "validExhibits": [
                    9
               ]
          },
          {
               "id": 51,
               "category": 0,
               "name": "Historical memory",
               "hint": "Reference to the population exchange in 1923 between Greece and Turkey",
               "points": 4,
               "validExhibits": [
                    10
               ]
          },
          {
               "id": 52,
               "category": 0,
               "name": "Imprint-Stamp",
               "hint": "",
               "points": 2,
               "validExhibits": [
                    10
               ]
          },
          {
               "id": 53,
               "category": 0,
               "name": "Portraits of refugees",
               "hint": "Refugees who came to Greece during the population exchange in 1922",
               "points": 4,
               "validExhibits": [
                    10
               ]
          },
          {
               "id": 54,
               "category": 0,
               "name": "Arrangement",
               "hint": "",
               "points": 3,
               "validExhibits": [
                    10
               ]
          },
          {
               "id": 55,
               "category": 0,
               "name": "Cabinets",
               "hint": "",
               "points": 1,
               "validExhibits": [
                    10
               ]
          },
          {
               "id": 56,
               "category": 0,
               "name": "Cube",
               "hint": "",
               "points": 1,
               "validExhibits": [
                    11
               ]
          },
          {
               "id": 57,
               "category": 0,
               "name": "Marble and silicone",
               "hint": "",
               "points": 3,
               "validExhibits": [
                    11
               ]
          },
          {
               "id": 58,
               "category": 0,
               "name": "Oppression-crush",
               "hint": "",
               "points": 4,
               "validExhibits": [
                    11
               ]
          },
          {
               "id": 59,
               "category": 0,
               "name": "Critique of colonialism",
               "hint": "The artist is a native Indian Cherokee who usually criticizes west-centric art norms",
               "points": 5,
               "validExhibits": [
                    11
               ]
          },
          {
               "id": 60,
               "category": 0,
               "name": "Lies close to the ground",
               "hint": "Establishing connection with \"mother earth\"",
               "points": 3,
               "validExhibits": [
                    11
               ]
          },
          {
               "id": 61,
               "category": 0,
               "name": "Nouveau Realisme",
               "hint": "Member of the Nouveaux Realistes Group operating in Paris during the 60's",
               "points": 5,
               "validExhibits": [
                    12
               ]
          },
          {
               "id": 62,
               "category": 0,
               "name": "Tree trunks",
               "hint": "",
               "points": 1,
               "validExhibits": [
                    12
               ]
          },
          {
               "id": 63,
               "category": 0,
               "name": "Shift on the use of everyday object",
               "hint": "Observe closely the artwork and the other tags.",
               "points": 5,
               "validExhibits": [
                    12
               ]
          },
          {
               "id": 64,
               "category": 0,
               "name": "Steel wire",
               "hint": "",
               "points": 3,
               "validExhibits": [
                    12
               ]
          },
          {
               "id": 65,
               "category": 0,
               "name": "Children's game",
               "hint": "",
               "points": 2,
               "validExhibits": [
                    13
               ]
          },
          {
               "id": 66,
               "category": 0,
               "name": "Tsiki-tsiki artistic practice",
               "hint": "Dense and detailed system of drawing first seen in the artist's works in 1965",
               "points": 5,
               "validExhibits": [
                    13
               ]
          },
          {
               "id": 67,
               "category": 0,
               "name": "Innocent victims of war",
               "hint": "Comment on the Vietnam War",
               "points": 5,
               "validExhibits": [
                    13
               ]
          },
          {
               "id": 68,
               "category": 0,
               "name": "Antiwar comment",
               "hint": "",
               "points": 4,
               "validExhibits": [
                    13
               ]
          },
          {
               "id": 69,
               "category": 0,
               "name": "Miniature",
               "hint": "Maquette of a large-scale artwork",
               "points": 3,
               "validExhibits": [
                    13
               ]
          },
          {
               "id": 70,
               "category": 0,
               "name": "Kinetic Art",
               "hint": "Tinguely is the major representative of Kinetic Art movement in the 60's",
               "points": 4,
               "validExhibits": [
                    14
               ]
          },
          {
               "id": 71,
               "category": 0,
               "name": "Marionette",
               "hint": "",
               "points": 2,
               "validExhibits": [
                    14
               ]
          },
          {
               "id": 72,
               "category": 0,
               "name": "Skeleton",
               "hint": "",
               "points": 1,
               "validExhibits": [
                    14
               ]
          },
          {
               "id": 73,
               "category": 0,
               "name": "Repeated dance",
               "hint": "The artwork derives from the Macabre Dance rituals of the medieval period",
               "points": 3,
               "validExhibits": [
                    14
               ]
          },
          {
               "id": 74,
               "category": 0,
               "name": "Electric Motor",
               "hint": "",
               "points": 1,
               "validExhibits": [
                    14
               ]
          }
     ],
     "categories": [
          {
               "id": 0,
               "color": "black",
               "description": "No description",
               "name": "No category"
          }
     ]
}